C:\Users\nailya.ayupova\Desktop\stc30\inno_java_stc_30\Themes\38. Maven and JUnit\src\main\java\ru\inno\Parser.java
C:\Users\nailya.ayupova\Desktop\stc30\inno_java_stc_30\Themes\38. Maven and JUnit\src\main\java\ru\inno\ParserImpl.java
C:\Users\nailya.ayupova\Desktop\stc30\inno_java_stc_30\Themes\38. Maven and JUnit\src\main\java\ru\inno\Main.java
