-------------------------------------------------------------------------------
Test set: ru.inno.ParserImplTest
-------------------------------------------------------------------------------
Tests run: 7, Failures: 0, Errors: 0, Skipped: 0, Time elapsed: 1.202 s - in ru.inno.ParserImplTest
